HDZ na društvenim mrežama
…
4.39

album

2.12

photo

1.50

status

0.14

## # A tibble: 166 x 2
##    author                Retweet
##    <chr>                   <dbl>
##  1 Daniel Mošmondor           18
##  2 Mars                       18
##  3 Marinko Kordić             17
##  4 Edvard Busic               16
##  5 Boki K.                    15
##  6 dr.Karosh (proljetni)      12
##  7 Vladimir Jurican           12
##  8 Bastašić Damir             11
##  9 Crna Kraljica              11
## 10 Jasminko Umićević          11
## # ... with 156 more rows
…
